[
    {
        "username": "acramdhana",
        "age": 21,
        "gender": "man",
        "user_id": 1
    },
    {
        "username": "hafid234",
        "age": 22,
        "gender": "man",
        "user_id": 2
    },
    {
        "username": "thewingman",
        "age": 21,
        "gender": "man",
        "user_id": 3
    }
]